<?xml version="1.0" encoding="UTF-8" standalone="no"?>
<!-- Created with Inkscape (http://www.inkscape.org/) -->

<svg
   xmlns:dc="http://purl.org/dc/elements/1.1/"
   xmlns:cc="http://creativecommons.org/ns#"
   xmlns:rdf="http://www.w3.org/1999/02/22-rdf-syntax-ns#"
   xmlns:svg="http://www.w3.org/2000/svg"
   xmlns="http://www.w3.org/2000/svg"
   xmlns:sodipodi="http://sodipodi.sourceforge.net/DTD/sodipodi-0.dtd"
   xmlns:inkscape="http://www.inkscape.org/namespaces/inkscape"
   width="122.80867mm"
   height="112.22016mm"
   viewBox="0 0 122.80867 112.22016"
   version="1.1"
   id="svg8"
   inkscape:version="0.92.4 (5da689c313, 2019-01-14)"
   sodipodi:docname="secuencia_0.svg"
   inkscape:export-filename="/home/david/Documentos/CursosQuux/ElementosPython/1_tipos_estructuras/img/secuencia_0.svg.png"
   inkscape:export-xdpi="96"
   inkscape:export-ydpi="96">
  <defs
     id="defs2">
    <marker
       inkscape:isstock="true"
       style="overflow:visible"
       id="marker1647"
       refX="0"
       refY="0"
       orient="auto"
       inkscape:stockid="Arrow1Mend">
      <path
         transform="matrix(-0.4,0,0,-0.4,-4,0)"
         style="fill:#000000;fill-opacity:1;fill-rule:evenodd;stroke:#000000;stroke-width:1.00000003pt;stroke-opacity:1"
         d="M 0,0 5,-5 -12.5,0 5,5 Z"
         id="path1645"
         inkscape:connector-curvature="0" />
    </marker>
    <marker
       inkscape:stockid="Arrow1Mend"
       orient="auto"
       refY="0"
       refX="0"
       id="marker1409"
       style="overflow:visible"
       inkscape:isstock="true"
       inkscape:collect="always">
      <path
         id="path1407"
         d="M 0,0 5,-5 -12.5,0 5,5 Z"
         style="fill:#000000;fill-opacity:1;fill-rule:evenodd;stroke:#000000;stroke-width:1.00000003pt;stroke-opacity:1"
         transform="matrix(-0.4,0,0,-0.4,-4,0)"
         inkscape:connector-curvature="0" />
    </marker>
    <marker
       inkscape:isstock="true"
       style="overflow:visible"
       id="marker1159"
       refX="0"
       refY="0"
       orient="auto"
       inkscape:stockid="Arrow1Mend"
       inkscape:collect="always">
      <path
         transform="matrix(-0.4,0,0,-0.4,-4,0)"
         style="fill:#000000;fill-opacity:1;fill-rule:evenodd;stroke:#000000;stroke-width:1.00000003pt;stroke-opacity:1"
         d="M 0,0 5,-5 -12.5,0 5,5 Z"
         id="path1157"
         inkscape:connector-curvature="0" />
    </marker>
    <marker
       inkscape:stockid="Arrow1Mend"
       orient="auto"
       refY="0"
       refX="0"
       id="Arrow1Mend"
       style="overflow:visible"
       inkscape:isstock="true"
       inkscape:collect="always">
      <path
         id="path868"
         d="M 0,0 5,-5 -12.5,0 5,5 Z"
         style="fill:#000000;fill-opacity:1;fill-rule:evenodd;stroke:#000000;stroke-width:1.00000003pt;stroke-opacity:1"
         transform="matrix(-0.4,0,0,-0.4,-4,0)"
         inkscape:connector-curvature="0" />
    </marker>
  </defs>
  <sodipodi:namedview
     id="base"
     pagecolor="#ffffff"
     bordercolor="#666666"
     borderopacity="1.0"
     inkscape:pageopacity="0.0"
     inkscape:pageshadow="2"
     inkscape:zoom="0.7"
     inkscape:cx="239.73845"
     inkscape:cy="122.39399"
     inkscape:document-units="mm"
     inkscape:current-layer="layer1"
     showgrid="false"
     fit-margin-top="5"
     fit-margin-left="5"
     fit-margin-bottom="5"
     fit-margin-right="5"
     inkscape:window-width="1366"
     inkscape:window-height="707"
     inkscape:window-x="0"
     inkscape:window-y="0"
     inkscape:window-maximized="1" />
  <metadata
     id="metadata5">
    <rdf:RDF>
      <cc:Work
         rdf:about="">
        <dc:format>image/svg+xml</dc:format>
        <dc:type
           rdf:resource="http://purl.org/dc/dcmitype/StillImage" />
        <dc:title></dc:title>
      </cc:Work>
    </rdf:RDF>
  </metadata>
  <g
     inkscape:label="Capa 1"
     inkscape:groupmode="layer"
     id="layer1"
     transform="translate(-24.399649,-110.25672)">
    <rect
       style="fill:#1a1a1a;fill-opacity:1;stroke:none;stroke-width:0.76068288;stroke-miterlimit:4;stroke-dasharray:none;stroke-opacity:1"
       id="rect835"
       width="47.41132"
       height="12.105018"
       x="94.796997"
       y="115.58959" />
    <rect
       y="115.58959"
       x="29.732519"
       height="12.105018"
       width="36.315056"
       id="rect819"
       style="fill:#000000;fill-opacity:1;stroke:none;stroke-width:0.66574204;stroke-miterlimit:4;stroke-dasharray:none;stroke-opacity:1" />
    <rect
       style="fill:#a4ffff;fill-opacity:1;stroke:none;stroke-width:0.66574204;stroke-miterlimit:4;stroke-dasharray:none;stroke-opacity:1"
       id="rect815"
       width="36.315056"
       height="12.105018"
       x="29.399649"
       y="115.25672" />
    <rect
       y="115.25672"
       x="94.464127"
       height="12.105018"
       width="47.41132"
       id="rect817"
       style="fill:#fcffa4;fill-opacity:1;stroke:none;stroke-width:0.76068288;stroke-miterlimit:4;stroke-dasharray:none;stroke-opacity:1" />
    <text
       xml:space="preserve"
       style="font-style:normal;font-weight:normal;font-size:6.65742016px;line-height:1.25;font-family:sans-serif;letter-spacing:0px;word-spacing:0px;fill:#000000;fill-opacity:1;stroke:none;stroke-width:0.16643551"
       x="35.395668"
       y="123.5387"
       id="text825"><tspan
         sodipodi:role="line"
         id="tspan823"
         x="35.395668"
         y="123.5387"
         style="stroke-width:0.16643551">usuario</tspan></text>
    <text
       id="text829"
       y="123.5387"
       x="35.395668"
       style="font-style:normal;font-weight:normal;font-size:6.65742016px;line-height:1.25;font-family:sans-serif;letter-spacing:0px;word-spacing:0px;fill:#000000;fill-opacity:1;stroke:none;stroke-width:0.16643551"
       xml:space="preserve"><tspan
         style="stroke-width:0.16643551"
         y="123.5387"
         x="35.395668"
         id="tspan827"
         sodipodi:role="line">usuario</tspan></text>
    <text
       xml:space="preserve"
       style="font-style:normal;font-weight:normal;font-size:6.65742016px;line-height:1.25;font-family:sans-serif;letter-spacing:0px;word-spacing:0px;fill:#000000;fill-opacity:1;stroke:none;stroke-width:0.16643551"
       x="96.263512"
       y="123.5387"
       id="text833"><tspan
         sodipodi:role="line"
         id="tspan831"
         x="96.263512"
         y="123.5387"
         style="stroke-width:0.16643551">computadora</tspan></text>
    <path
       style="fill:none;stroke:#000000;stroke-width:0.83217752;stroke-linecap:butt;stroke-linejoin:miter;stroke-miterlimit:4;stroke-dasharray:none;stroke-opacity:1"
       d="m 47.557176,127.69799 v 89.77889"
       id="path837"
       inkscape:connector-curvature="0" />
    <path
       inkscape:connector-curvature="0"
       id="path839"
       d="m 118.16979,127.69799 v 89.77889"
       style="fill:none;stroke:#000000;stroke-width:0.83217752;stroke-linecap:butt;stroke-linejoin:miter;stroke-miterlimit:4;stroke-dasharray:none;stroke-opacity:1" />
    <rect
       style="fill:#f7d213;fill-opacity:1;stroke:none;stroke-width:0.83217752;stroke-miterlimit:4;stroke-dasharray:none;stroke-opacity:1"
       id="rect841"
       width="8.5595407"
       height="8.5595407"
       x="43.277405"
       y="141.60884" />
    <rect
       y="141.60884"
       x="113.89362"
       height="8.5595407"
       width="8.5595407"
       id="rect843"
       style="fill:#f7d213;fill-opacity:1;stroke:none;stroke-width:0.83217752;stroke-miterlimit:4;stroke-dasharray:none;stroke-opacity:1" />
    <rect
       style="fill:#f7d213;fill-opacity:1;stroke:none;stroke-width:0.83217752;stroke-miterlimit:4;stroke-dasharray:none;stroke-opacity:1"
       id="rect845"
       width="8.5595407"
       height="8.5595407"
       x="113.89362"
       y="158.96568" />
    <rect
       y="158.96568"
       x="43.277405"
       height="8.5595407"
       width="8.5595407"
       id="rect847"
       style="fill:#f7d213;fill-opacity:1;stroke:none;stroke-width:0.83217752;stroke-miterlimit:4;stroke-dasharray:none;stroke-opacity:1" />
    <rect
       style="fill:#f7d213;fill-opacity:1;stroke:none;stroke-width:0.83217752;stroke-miterlimit:4;stroke-dasharray:none;stroke-opacity:1"
       id="rect849"
       width="8.5595407"
       height="8.5595407"
       x="43.277405"
       y="175.847" />
    <rect
       y="175.847"
       x="113.89362"
       height="8.5595407"
       width="8.5595407"
       id="rect851"
       style="fill:#f7d213;fill-opacity:1;stroke:none;stroke-width:0.83217752;stroke-miterlimit:4;stroke-dasharray:none;stroke-opacity:1" />
    <rect
       style="fill:#f7d213;fill-opacity:1;stroke:none;stroke-width:0.83217752;stroke-miterlimit:4;stroke-dasharray:none;stroke-opacity:1"
       id="rect853"
       width="8.5595407"
       height="8.5595407"
       x="113.89362"
       y="192.49054" />
    <rect
       y="192.49054"
       x="43.277405"
       height="8.5595407"
       width="8.5595407"
       id="rect855"
       style="fill:#f7d213;fill-opacity:1;stroke:none;stroke-width:0.83217752;stroke-miterlimit:4;stroke-dasharray:none;stroke-opacity:1" />
    <path
       style="fill:none;stroke:#000000;stroke-width:0.16643551;stroke-linecap:butt;stroke-linejoin:miter;stroke-miterlimit:4;stroke-dasharray:none;stroke-opacity:1;marker-end:url(#Arrow1Mend)"
       d="M 53.228042,145.88861 H 111.00494"
       id="path857"
       inkscape:connector-curvature="0" />
    <text
       xml:space="preserve"
       style="font-style:normal;font-weight:normal;font-size:3.46354771px;line-height:1.25;font-family:sans-serif;letter-spacing:0px;word-spacing:0px;fill:#000000;fill-opacity:1;stroke:none;stroke-width:0.08658868"
       x="64.822868"
       y="144.17531"
       id="text1143"><tspan
         sodipodi:role="line"
         id="tspan1141"
         x="64.822868"
         y="144.17531"
         style="stroke-width:0.08658868">iniciar programa</tspan></text>
    <path
       inkscape:connector-curvature="0"
       id="path1151"
       d="M 111.33293,163.72099 H 53.556033"
       style="fill:none;stroke:#000000;stroke-width:0.16643551;stroke-linecap:butt;stroke-linejoin:miter;stroke-miterlimit:4;stroke-dasharray:none;stroke-opacity:1;marker-end:url(#marker1159)" />
    <text
       id="text1155"
       y="162.00769"
       x="64.822868"
       style="font-style:normal;font-weight:normal;font-size:3.46354771px;line-height:1.25;font-family:sans-serif;letter-spacing:0px;word-spacing:0px;fill:#000000;fill-opacity:1;stroke:none;stroke-width:0.08658868"
       xml:space="preserve"><tspan
         style="stroke-width:0.08658868"
         y="162.00769"
         x="64.822868"
         id="tspan1153"
         sodipodi:role="line">pedir nombre</tspan></text>
    <path
       style="fill:none;stroke:#000000;stroke-width:0.16643551;stroke-linecap:butt;stroke-linejoin:miter;stroke-miterlimit:4;stroke-dasharray:none;stroke-opacity:1;marker-end:url(#marker1409)"
       d="M 53.228042,180.36453 H 111.00494"
       id="path1401"
       inkscape:connector-curvature="0" />
    <text
       xml:space="preserve"
       style="font-style:normal;font-weight:normal;font-size:3.46354771px;line-height:1.25;font-family:sans-serif;letter-spacing:0px;word-spacing:0px;fill:#000000;fill-opacity:1;stroke:none;stroke-width:0.08658868"
       x="64.822868"
       y="178.65125"
       id="text1405"><tspan
         sodipodi:role="line"
         id="tspan1403"
         x="64.822868"
         y="178.65125"
         style="stroke-width:0.08658868">entregar nombre</tspan></text>
    <path
       inkscape:connector-curvature="0"
       id="path1639"
       d="M 111.33293,196.84081 H 53.556033"
       style="fill:none;stroke:#000000;stroke-width:0.16643551;stroke-linecap:butt;stroke-linejoin:miter;stroke-miterlimit:4;stroke-dasharray:none;stroke-opacity:1;marker-end:url(#marker1647)" />
    <text
       id="text1643"
       y="195.12752"
       x="64.822868"
       style="font-style:normal;font-weight:normal;font-size:3.46354771px;line-height:1.25;font-family:sans-serif;letter-spacing:0px;word-spacing:0px;fill:#000000;fill-opacity:1;stroke:none;stroke-width:0.08658868"
       xml:space="preserve"><tspan
         style="stroke-width:0.08658868"
         y="195.12752"
         x="64.822868"
         id="tspan1641"
         sodipodi:role="line">saludar</tspan></text>
  </g>
</svg>
